rgamer
…
P2には、P1が\(\{(1/2, 1/2\}\)の混合戦略を取るときのみ、混合戦略を取るインセンティブがある

シミュレーションの結果を眺める

rgamerは特定のゲームに対する標準的な分析を自動で行うだけではなく、特定の意思決定ルールに従う個人が、そのゲームにおいてどのように振舞うのかをシミュレーションすることができる

g1_sim <- sim_game(
  game1, # normal_formで定義したgameオブジェクト
  n_samples = 100, # iterationの数（ゲームをプレーする個人の組）
  n_periods = 50 # 一つの組がプレーするゲームの数
)
g1_sim

$data
# A tibble: 10,000 × 4
   sample period player strategy
    <int>  <int> <chr>  <chr>   
 1      1      1 Ore    top     
 2      1      1 Are    bottom  
 3      1      2 Ore    bottom  
 4      1      2 Are    bottom  
 5      1      3 Ore    bottom  
 6      1      3 Are    top     
 7      1      4 Ore    top     
 8      1      4 Are    top     
 9      1      5 Ore    top     
10      1      5 Are    bottom  
# ℹ 9,990 more rows
…
